<svg xmlns="http://www.w3.org/2000/svg" viewBox="0 0 209 212.338">
  <defs>
    <style>
      .cls-1 {
        fill: #ff3e14;
      }

      .cls-2 {
        fill: #fff;
      }
    </style>
  </defs>
  <g id="Group_375" data-name="Group 375" transform="translate(-10806 -2160)">
    <g id="groceries" transform="translate(10806 2160)">
      <g id="Group_358" data-name="Group 358" transform="translate(134.723 159.266)">
        <g id="Group_357" data-name="Group 357">
          <path id="Path_346" data-name="Path 346" class="cls-1" d="M370.9,432.874a3.923,3.923,0,0,0-.211-.693,3.762,3.762,0,0,0-.341-.637,3.545,3.545,0,0,0-.46-.563,3.783,3.783,0,0,0-.563-.463,3.657,3.657,0,0,0-.641-.341,3.745,3.745,0,0,0-.693-.211,3.669,3.669,0,0,0-1.449,0,3.925,3.925,0,0,0-.693.211,3.67,3.67,0,0,0-2,2,3.637,3.637,0,0,0-.211.693,3.718,3.718,0,0,0-.074.726,3.65,3.65,0,0,0,.074.723,3.474,3.474,0,0,0,.211.693,3.428,3.428,0,0,0,.341.641,3.547,3.547,0,0,0,.46.563,3.732,3.732,0,0,0,2.62,1.086,3.625,3.625,0,0,0,.723-.074,3.771,3.771,0,0,0,.693-.211,3.685,3.685,0,0,0,.641-.341,3.6,3.6,0,0,0,1.023-1.023,3.656,3.656,0,0,0,.341-.641,3.732,3.732,0,0,0,.211-.693,3.649,3.649,0,0,0,.074-.723A3.722,3.722,0,0,0,370.9,432.874Z" transform="translate(-363.56 -429.893)"/>
        </g>
      </g>
      <g id="Group_360" data-name="Group 360" transform="translate(47.596 159.268)">
        <g id="Group_359" data-name="Group 359">
          <path id="Path_347" data-name="Path 347" class="cls-1" d="M205.8,429.9H132.147a3.706,3.706,0,1,0,0,7.411H205.8a3.706,3.706,0,0,0,0-7.411Z" transform="translate(-128.441 -429.898)"/>
        </g>
      </g>
      <g id="Group_362" data-name="Group 362" transform="translate(0 0)">
        <g id="Group_361" data-name="Group 361">
          <path id="Path_348" data-name="Path 348" class="cls-1" d="M189.692,78.137a3.706,3.706,0,0,0-3.706-3.706H175.243a50.111,50.111,0,0,0,13.851-13.515,3.705,3.705,0,0,0-.985-5.056,50.491,50.491,0,0,0-16.84-7.115,50.069,50.069,0,0,0,1.777-12.778,3.706,3.706,0,0,0-3.642-3.642A50.258,50.258,0,0,0,156.627,34.1a50.5,50.5,0,0,0-7.116-16.841,3.7,3.7,0,0,0-5.056-.985c-.622.4-15.271,10.074-18.258,25.408a33.532,33.532,0,0,0,.092,12.661,23,23,0,0,0-17.4,10.115L85.906,98.5V42.854s0-.009,0-.013c0-.02,0-.039,0-.059,0,0,0-.009,0-.013,0-.023,0-.046,0-.069v-.024c0-.019,0-.037,0-.056V42.6c0-.023,0-.047-.006-.07,0-.007,0-.013,0-.02s0-.041-.006-.062v-.011c0-.024-.006-.048-.009-.073l0-.016-.009-.065a.08.08,0,0,0,0-.009c0-.025-.008-.05-.013-.074l0-.012-.012-.065,0-.013c0-.024-.01-.048-.015-.072l0-.015-.014-.059,0-.017c-.006-.024-.012-.047-.019-.071a.1.1,0,0,1,0-.011c-.006-.02-.011-.04-.017-.06l-.006-.019-.021-.07,0-.007-.02-.062-.007-.019-.025-.069L76.713,17.4V3.81A3.706,3.706,0,0,0,73.007.1H30.567A3.706,3.706,0,0,0,26.862,3.81V17.292L15.208,41.317c-.014.029-.027.058-.041.087l-.006.012c-.013.028-.025.057-.037.085l-.005.013-.036.089,0,.006q-.056.145-.1.292v0c-.01.033-.019.065-.027.1v0q-.039.151-.065.3h0c-.006.033-.011.065-.015.1v.01c0,.031-.009.063-.012.095v.009c0,.033-.007.065-.01.1h0c0,.033-.005.065-.007.1,0,0,0,.005,0,.008,0,.031,0,.062,0,.093,0,0,0,.01,0,.015,0,.03,0,.059,0,.089V74.432H3.706A3.706,3.706,0,0,0,0,78.138V186.052a3.706,3.706,0,0,0,3.706,3.706H186.025a3.706,3.706,0,0,0,3.706-3.706Zm-7.411,3.706V98.869h-7.425V81.843ZM180.5,59.966c-3.313,3.9-9.858,10.3-18.23,11.935a26.046,26.046,0,0,1-9.61-.053A31.629,31.629,0,0,0,168.716,55.8,42.119,42.119,0,0,1,180.5,59.966ZM167.445,78.185V98.869H137.376l3.534-2.386a23,23,0,0,0,10.115-17.4,36.454,36.454,0,0,0,6.745.651,30.891,30.891,0,0,0,5.916-.559A30.272,30.272,0,0,0,167.445,78.185Zm-2.047-38.2a43.177,43.177,0,0,1-2.353,10.2,3.682,3.682,0,0,0-.191.5,27.055,27.055,0,0,1-5.913,9.385,26.648,26.648,0,0,1-8.981,5.742,22.985,22.985,0,0,0-8.4-8.4,26.629,26.629,0,0,1,5.742-8.981C151.339,42.4,160.314,40.548,165.4,39.983ZM133.472,43.1c1.632-8.377,8.041-14.926,11.941-18.236a41.775,41.775,0,0,1,4.163,11.788,31.632,31.632,0,0,0-16.051,16.057A26.048,26.048,0,0,1,133.472,43.1Zm-19.907,27.68,10.5,10.5a3.706,3.706,0,0,0,5.241-5.241L118.322,65.059a15.656,15.656,0,1,1,18.44,25.281l-12.629,8.529H94.6ZM73.231,29.325l3.645,9.829-6.854.009Zm5.263,17.254v52.29H68.6V46.579ZM69.3,7.515v6.85l-35.028.066V7.515H69.3ZM32.89,21.844,67.9,21.778,62.223,39.173l-37.761.047ZM22.248,46.635l38.94-.049V64.117H22.248Zm0,24.893h38.94V98.869H22.248ZM7.411,81.843h7.425V98.869H7.411Zm174.908,100.5H7.411V144.315H182.319Zm0-45.443H7.411V106.28H182.319Z" transform="translate(0 -0.104)"/>
        </g>
      </g>
      <g id="Group_364" data-name="Group 364" transform="translate(17.482 152.905)">
        <g id="Group_363" data-name="Group 363">
          <path id="Path_349" data-name="Path 349" class="cls-1" d="M64.113,419.344H61.2v-2.91a3.706,3.706,0,1,0-7.411,0v2.91h-2.91a3.706,3.706,0,1,0,0,7.411h2.91v2.91a3.706,3.706,0,1,0,7.411,0v-2.91h2.909a3.706,3.706,0,1,0,0-7.411Z" transform="translate(-47.177 -412.729)"/>
        </g>
      </g>
      <g id="Group_366" data-name="Group 366" transform="translate(151.607 152.905)">
        <g id="Group_365" data-name="Group 365">
          <path id="Path_350" data-name="Path 350" class="cls-1" d="M426.056,419.344h-2.91v-2.91a3.706,3.706,0,1,0-7.411,0v2.91h-2.909a3.706,3.706,0,0,0,0,7.411h2.909v2.91a3.706,3.706,0,1,0,7.411,0v-2.91h2.91a3.706,3.706,0,1,0,0-7.411Z" transform="translate(-409.12 -412.729)"/>
        </g>
      </g>
      <g id="Group_368" data-name="Group 368" transform="translate(151.607 111.166)">
        <g id="Group_367" data-name="Group 367">
          <path id="Path_351" data-name="Path 351" class="cls-1" d="M426.056,306.708h-2.91V303.8a3.706,3.706,0,1,0-7.411,0v2.91h-2.909a3.706,3.706,0,0,0,0,7.411h2.909v2.91a3.706,3.706,0,1,0,7.411,0v-2.91h2.91a3.706,3.706,0,0,0,0-7.411Z" transform="translate(-409.12 -300.093)"/>
        </g>
      </g>
      <g id="Group_370" data-name="Group 370" transform="translate(17.482 111.166)">
        <g id="Group_369" data-name="Group 369">
          <path id="Path_352" data-name="Path 352" class="cls-1" d="M64.113,306.708H61.2V303.8a3.706,3.706,0,1,0-7.411,0v2.91h-2.91a3.706,3.706,0,0,0,0,7.411h2.91v2.91a3.706,3.706,0,1,0,7.411,0v-2.91h2.909a3.706,3.706,0,0,0,0-7.411Z" transform="translate(-47.177 -300.093)"/>
        </g>
      </g>
      <g id="Group_372" data-name="Group 372" transform="translate(47.596 118.037)">
        <g id="Group_371" data-name="Group 371">
          <path id="Path_353" data-name="Path 353" class="cls-1" d="M135.781,321.616a3.867,3.867,0,0,0-.211-.7,3.7,3.7,0,0,0-.8-1.2,3.544,3.544,0,0,0-.563-.46,3.785,3.785,0,0,0-.637-.341,3.7,3.7,0,0,0-2.142-.211,3.48,3.48,0,0,0-.693.211,3.681,3.681,0,0,0-.641.341,3.6,3.6,0,0,0-1.023,1.023,3.758,3.758,0,0,0-.341.637,3.868,3.868,0,0,0-.211.7,3.56,3.56,0,0,0,0,1.445,3.75,3.75,0,0,0,.211.693,3.667,3.667,0,0,0,.341.641,3.59,3.59,0,0,0,1.023,1.023,3.427,3.427,0,0,0,.641.341,3.751,3.751,0,0,0,.693.215,3.947,3.947,0,0,0,.723.07,4.019,4.019,0,0,0,.726-.07,3.937,3.937,0,0,0,.693-.215,3.765,3.765,0,0,0,1.2-.8,3.787,3.787,0,0,0,.463-.564,3.651,3.651,0,0,0,.337-.641,3.752,3.752,0,0,0,.215-.693,3.744,3.744,0,0,0,0-1.445Z" transform="translate(-128.44 -318.634)"/>
        </g>
      </g>
      <g id="Group_374" data-name="Group 374" transform="translate(61.071 118.035)">
        <g id="Group_373" data-name="Group 373">
          <path id="Path_354" data-name="Path 354" class="cls-1" d="M242.161,318.63H168.51a3.706,3.706,0,1,0,0,7.411h73.652a3.706,3.706,0,0,0,0-7.411Z" transform="translate(-164.804 -318.63)"/>
        </g>
      </g>
    </g>
    <ellipse id="Ellipse_3" data-name="Ellipse 3" class="cls-1" cx="31.935" cy="30.975" rx="31.935" ry="30.975" transform="translate(10951.13 2310.389)"/>
    <rect id="Rectangle_1116" data-name="Rectangle 1116" class="cls-2" width="34.929" height="8.882" rx="4.441" transform="translate(10966.1 2338.155)"/>
    <rect id="Rectangle_1117" data-name="Rectangle 1117" class="cls-2" width="38.432" height="8.073" rx="4.036" transform="translate(10987.6 2323.38) rotate(90)"/>
  </g>
</svg>
